{
  "type": "service_account",
  "project_id": "eculture-83b2b",
  "private_key_id": "e7d55ff2a8c77a699307c9d94f53764fb048fd62",
  "private_key": "-----BEGIN PRIVATE KEY-----\nMIIEvAIBADANBgkqhkiG9w0BAQEFAASCBKYwggSiAgEAAoIBAQCztswEpxbYasR6\nSHC+JbVIRHE0es41yWxtSVH30LmJVxhEkBg00ffyPU2iaxZ4Glr3nw063Z/nbtv/\nqdgKG1A5WjTglzztSyv9csWLYRWtva7pP5PlomlV+0bAY9B5vsynM5hTkpM5qZCi\nMQCXJjkUwwxyepWPoZx6HS03D8cmysOXba1khK1sq0lVOTV81c0dW9EtdstmY04o\nEZqWZfTsndV3Et84838odahmBuLjWbEtVq6CfxWCBDXk/4OnRlciaELnItBOazoO\ne0RTF3qYho5f0PAXvZ/d7mzHGqdWnOoqTOT58MVVgeTg1y8IxeiaDUmZKz3gDzx7\ntYX51z6HAgMBAAECggEAA4Haw3B7Wqfiw7wsLxnPSuTDDNIkuhn/OrbGmb6CEHMZ\nryTcxBMg8qJNpJDQdHGXOuPovzBaEYsxUfD/nVrhGu1uwL9S2hKwfhbCUjEH2kcs\nZbLu8PlVcu8fd1u7UtTta4nvPBpNMz/i6bdpGooNbSFNWeKYjqAJzLxLCJsPOOuN\novPWOFwYiT+AJVmEpEpveRHNKA8IjilABjcrRbnv49J6N1wXVHt+MkTd+nVhFlbt\nGbk53zKsGP0ZbWHx0Y9/smrWPt2oTzcTiQaadWEIXpO/D4QUO90zfWe95kFxHhBL\nUaS8Mml+t7TX25v122TnEkOC3QQLvn+qGX2RTtqhOQKBgQD6L+o557QLPLR9MGBS\nXMgbI7KPYyqbHJXDcTiB28VpfzQczYExLoz8OtfwUc56QAlRjKt2mFmcvNsICufT\nC62CvdGaATsCr7oHHFCAW/6rYRCiyuDf90OFLFKkPcFiQp3h9gj5sTLb+HAuZDhD\n34IrrL3vBXR9n1VnFJsy6KPTawKBgQC347dBzzdVqKan8hMiabISJj26T/bMkkxn\nZL7HSUv0jsP78pCKf4cARhKPlQyqWHPpzj02oPr6vVC6EKkpzSwX3MaQidpbjmb9\nrxZAqonyuPBJzY3WF8h+po22H2XOFYPb+2j63euFcfkuSje+p8/BGNPU95wtoR6X\nuTvKeeUkVQKBgF5rCM1TmUoIXeFFCYTryQUdAr1EYobpUcfRic7QPv9iZytbjx8d\nf02Nc4MZjH/sfNfO68K1GlShnVO6seSe6puFwX2Ka1fHM8CNOgBHN6Q73IhjYlyD\nt3Kh2IptV/caRvVI4fhBnH0RlFydq/JJfpm29nMnLuBd6mAdkbizvWgDAoGAYBq/\nrMIqTjc9GirWuzZ4HSolOpkOB+4xxhuN5UM2UhLG9IbZ6bgqiwcULjwciW5+7eOe\ndE1/vclxRjzs2+7hq3rzv5h8KTtsMgruW0+Flvf2hOvLw+dcHmzXRSZ1o1X1OuPT\nAsE2lOBy9TFOnvK/DlD2bKgX1HUPMwZY7EH2cp0CgYASA9S6iKxO3pvQgllJd7uR\nbiWj/8xLne2E7WLT54ZeQsbQAlJGLtmJe6yoHH27Yx6udIvkEppzp3u5Hwg/cSpA\nK1dN95LSqG9iqkMX3B/R2rokkuBKnpfPqgRCYhWJDkfDYxQZMKmc5I07jpm7WMP+\nt8cXqGY/Uy32KJnY7tlTxg==\n-----END PRIVATE KEY-----\n",
  "client_email": "firebase-adminsdk-s678n@eculture-83b2b.iam.gserviceaccount.com",
  "client_id": "117576089244447493547",
  "auth_uri": "https://accounts.google.com/o/oauth2/auth",
  "token_uri": "https://oauth2.googleapis.com/token",
  "auth_provider_x509_cert_url": "https://www.googleapis.com/oauth2/v1/certs",
  "client_x509_cert_url": "https://www.googleapis.com/robot/v1/metadata/x509/firebase-adminsdk-s678n%40eculture-83b2b.iam.gserviceaccount.com"
}
